{
  "datasource": "CrispmlDB",
  "aliasColors": {},
  "bars": false,
  "dashLength": 10,
  "dashes": false,
  "description": "",
  "fill": 1,
  "fillGradient": 0,
  "gridPos": {
    "h": 26,
    "w": 18,
    "x": 0,
    "y": 0
  },
  "hiddenSeries": false,
  "id": 2,
  "legend": {
    "avg": false,
    "current": false,
    "max": false,
    "min": false,
    "show": true,
    "total": false,
    "values": false
  },
  "lines": true,
  "linewidth": 1,
  "nullPointMode": "null",
  "options": {
    "dataLinks": []
  },
  "percentage": false,
  "pointradius": 0.5,
  "points": true,
  "renderer": "flot",
  "seriesOverrides": [],
  "spaceLength": 10,
  "stack": false,
  "steppedLine": false,
  "targets": [
    {
      "groupBy": [
        {
          "params": [
            "$__interval"
          ],
          "type": "time"
        },
        {
          "params": [
            "null"
          ],
          "type": "fill"
        }
      ],
      "measurement": "Crispml",
      "orderByTime": "ASC",
      "policy": "default",
      "refId": "A",
      "resultFormat": "time_series",
      "select": [
        [
          {
            "params": [
              "memTotal"
            ],
            "type": "field"
          },
          {
            "params": [],
            "type": "mean"
          }
        ]
      ],
      "tags": [],
      "query": "SELECT \"memTotal\" FROM \"Crispml\"",
      "rawQuery": true
    },
    {
      "refId": "B",
      "policy": "default",
      "resultFormat": "time_series",
      "orderByTime": "ASC",
      "tags": [],
      "groupBy": [
        {
          "type": "time",
          "params": [
            "$__interval"
          ]
        },
        {
          "type": "fill",
          "params": [
            "null"
          ]
        }
      ],
      "select": [
        [
          {
            "type": "field",
            "params": [
              "gcN"
            ]
          },
          {
            "type": "mean",
            "params": []
          }
        ]
      ],
      "measurement": "Crispml",
      "query": "SELECT \"gcN\" FROM \"Crispml\" ",
      "rawQuery": true
    },
    {
      "refId": "C",
      "policy": "default",
      "resultFormat": "time_series",
      "orderByTime": "ASC",
      "tags": [],
      "groupBy": [
        {
          "type": "time",
          "params": [
            "$__interval"
          ]
        },
        {
          "type": "fill",
          "params": [
            "null"
          ]
        }
      ],
      "select": [
        [
          {
            "type": "field",
            "params": [
              "gcV"
            ]
          },
          {
            "type": "mean",
            "params": []
          }
        ]
      ],
      "measurement": "Crispml",
      "query": "SELECT  \"gcV\" FROM \"Crispml\" ",
      "rawQuery": true
    }
  ],
  "thresholds": [],
  "timeFrom": null,
  "timeRegions": [],
  "timeShift": null,
  "title": "CrispML-MemoryR",
  "tooltip": {
    "shared": true,
    "sort": 0,
    "value_type": "individual"
  },
  "type": "graph",
  "xaxis": {
    "buckets": null,
    "mode": "time",
    "name": null,
    "show": true,
    "values": []
  },
  "yaxes": [
    {
      "format": "short",
      "label": null,
      "logBase": 1,
      "max": null,
      "min": null,
      "show": true
    },
    {
      "format": "short",
      "label": null,
      "logBase": 1,
      "max": null,
      "min": null,
      "show": true
    }
  ],
  "yaxis": {
    "align": false,
    "alignLevel": null
  }
}
